res,bit,err
ACC,0,101
ACC,1,94
ACC,2,96
ACC,3,99
ACC,4,110
ACC,5,116
ACC,6,118
ACC,7,120
ACC,8,122
ACC,9,124
ACC,10,134
ACC,11,143
ACC,12,143
ACC,13,143
ACC,14,143
ACC,15,143
B,0,6
B,1,6
B,2,12
B,3,6
B,4,19
B,5,19
B,6,19
B,7,19
B,8,19
B,9,19
B,10,39
B,11,39
B,12,39
B,13,39
B,14,39
B,15,39
MQ,0,72
MQ,1,87
MQ,2,89
MQ,3,93
MQ,4,103
MQ,5,104
MQ,6,105
MQ,7,102
MQ,8,106
MQ,9,108
MQ,10,116
MQ,11,111
MQ,12,111
MQ,13,110
MQ,14,110
MQ,15,110
CPTR,0,63
CPTR,1,88
CPTR,2,82
CPTR,3,77
CPTR,4,70
CPTR,5,66
CPTR,6,62
CPTR,7,57
CPTR,8,52
CPTR,9,47
CPTR,10,42
CPTR,11,37
CPTR,12,32
CPTR,13,25
CPTR,14,18
CPTR,15,12
D,0,97


